Project population development — propop_tables • propop
…
#> Year of starting population: 2023
#> Number of age groups: 101
#> Fertile period: 16-50
#> Share of female newborns: 0.488
#> Size of starting population: 726894
#> Projection period: 2024-2027
#> Nationality-specific projection: "yes"
#> Subregional migration: "no"
#> ────────────────────────────────────────────────────────────────────────────────
#> Projected population size by 2027:
#> - Scenario "high": 768975
#> - Scenario "low": 748787
#> - Scenario "reference": 759078
#> ════════════════════════════════════════════════════════════════════════════════
#> # A tibble: 4,848 × 15
#>     year scen  spatial_unit nat   sex     age births n_jan mor_n emi_int_n
#>    <int> <chr> <chr>        <fct> <fct> <dbl>  <dbl> <dbl> <dbl>     <dbl>
#>  1  2024 high  Aargau       ch    m         0  2633.     0 9.00       6.00
#>  2  2024 high  Aargau       ch    m         1     0   2371 0.982     13.0 
#>  3  2024 high  Aargau       ch    m         2     0   2542 0.989     13.0 
#>  4  2024 high  Aargau       ch    m         3     0   2891 0.992     14.0 
#>  5  2024 high  Aargau       ch    m         4     0   2766 0         13.0 
#>  6  2024 high  Aargau       ch    m         5     0   2794 0         12.0 
#>  7  2024 high  Aargau       ch    m         6     0   2782 0         11.0 
#>  8  2024 high  Aargau       ch    m         7     0   2787 0         10.00
#>  9  2024 high  Aargau       ch    m         8     0   2726 0          9.00
#> 10  2024 high  Aargau       ch    m         9     0   2837 0          9.00
#> # ℹ 4,838 more rows
#> # ℹ 5 more variables: emi_nat_n <dbl>, imm_int_n <dbl>, imm_nat_n <dbl>,
#> #   acq_n <dbl>, n_dec <dbl>
…
#> Scenario(s): "high" and "reference"
#> Year of starting population: 2023
#> Number of age groups: 101
#> Fertile period: 16-50
#> Share of female newborns: 0.488
#> Size of starting population: 726894
#> Projection period: 2024-2026
#> Nationality-specific projection: "yes"
#> Subregional migration: "no"
#> ────────────────────────────────────────────────────────────────────────────────
#> Projected population size by 2026:
#> - Scenario "high": 758489
#> - Scenario "reference": 751225
#> ════════════════════════════════════════════════════════════════════════════════
#> # A tibble: 2,424 × 15
#>     year scen  spatial_unit nat   sex     age births n_jan mor_n emi_int_n
#>    <int> <chr> <chr>        <fct> <fct> <dbl>  <dbl> <dbl> <dbl>     <dbl>
#>  1  2024 high  Aargau       ch    m         0  2633.     0 9.00       6.00
#>  2  2024 high  Aargau       ch    m         1     0   2371 0.982     13.0 
#>  3  2024 high  Aargau       ch    m         2     0   2542 0.989     13.0 
#>  4  2024 high  Aargau       ch    m         3     0   2891 0.992     14.0 
#>  5  2024 high  Aargau       ch    m         4     0   2766 0         13.0 
#>  6  2024 high  Aargau       ch    m         5     0   2794 0         12.0 
#>  7  2024 high  Aargau       ch    m         6     0   2782 0         11.0 
#>  8  2024 high  Aargau       ch    m         7     0   2787 0         10.00
#>  9  2024 high  Aargau       ch    m         8     0   2726 0          9.00
#> 10  2024 high  Aargau       ch    m         9     0   2837 0          9.00
#> # ℹ 2,414 more rows
#> # ℹ 5 more variables: emi_nat_n <dbl>, imm_int_n <dbl>, imm_nat_n <dbl>,
#> #   acq_n <dbl>, n_dec <dbl>
…
