…
#> Year of starting population: 2023
#> Number of age groups: 101
#> Fertile period: 16-50
#> Share of female newborns: 0.488
#> Size of starting population: 726894
#> Projection period: 2024-2027
#> Nationality-specific projection: "yes"
#> Subregional migration: "no"
#> ────────────────────────────────────────────────────────────────────────────────
#> Projected population size by 2027:
#> - Scenario "high": 768888
#> - Scenario "low": 748703
#> - Scenario "reference": 758993
#> ════════════════════════════════════════════════════════════════════════════════
#> # A tibble: 4,848 × 17
#>     year scen  spatial_unit   age sex   nat   n_jan births   mor emi_int emi_nat
#>    <dbl> <fct> <fct>        <dbl> <fct> <fct> <dbl>  <dbl> <dbl>   <dbl>   <dbl>
#>  1  2024 high  Aargau           0 m     ch        0  2633. 9.00     6.00    21.0
#>  2  2024 high  Aargau           1 m     ch     2371     0  1.000   13.0     49.1
#>  3  2024 high  Aargau           2 m     ch     2542     0  0.998   13.0     56.0
#>  4  2024 high  Aargau           3 m     ch     2891     0  0.983   14.0     54.0
#>  5  2024 high  Aargau           4 m     ch     2766     0  0       13.0     44.0
#>  6  2024 high  Aargau           5 m     ch     2794     0  0       12.0     38.0
#>  7  2024 high  Aargau           6 m     ch     2782     0  0       11.0     33.0
#>  8  2024 high  Aargau           7 m     ch     2787     0  0       10.00    29.0
#>  9  2024 high  Aargau           8 m     ch     2726     0  0        9.00    24.0
#> 10  2024 high  Aargau           9 m     ch     2837     0  0        9.00    22.0
#> # ℹ 4,838 more rows
#> # ℹ 6 more variables: imm_int <dbl>, imm_nat <dbl>, acq <dbl>, n_dec <dbl>,
#> #   delta_n <dbl>, delta_perc <dbl>
…
#> Scenario(s): "high" and "reference"
#> Year of starting population: 2023
#> Number of age groups: 101
#> Fertile period: 16-50
#> Share of female newborns: 0.488
#> Size of starting population: 726894
#> Projection period: 2024-2026
#> Nationality-specific projection: "yes"
#> Subregional migration: "no"
#> ────────────────────────────────────────────────────────────────────────────────
#> Projected population size by 2026:
#> - Scenario "high": 758421
#> - Scenario "reference": 751159
#> ════════════════════════════════════════════════════════════════════════════════
#> # A tibble: 2,424 × 17
#>     year scen  spatial_unit   age sex   nat   n_jan births   mor emi_int emi_nat
#>    <dbl> <fct> <fct>        <dbl> <fct> <fct> <dbl>  <dbl> <dbl>   <dbl>   <dbl>
#>  1  2024 high  Aargau           0 m     ch        0  2633. 9.00     6.00    21.0
#>  2  2024 high  Aargau           1 m     ch     2371     0  1.000   13.0     49.1
#>  3  2024 high  Aargau           2 m     ch     2542     0  0.998   13.0     56.0
#>  4  2024 high  Aargau           3 m     ch     2891     0  0.983   14.0     54.0
#>  5  2024 high  Aargau           4 m     ch     2766     0  0       13.0     44.0
#>  6  2024 high  Aargau           5 m     ch     2794     0  0       12.0     38.0
#>  7  2024 high  Aargau           6 m     ch     2782     0  0       11.0     33.0
#>  8  2024 high  Aargau           7 m     ch     2787     0  0       10.00    29.0
#>  9  2024 high  Aargau           8 m     ch     2726     0  0        9.00    24.0
#> 10  2024 high  Aargau           9 m     ch     2837     0  0        9.00    22.0
#> # ℹ 2,414 more rows
#> # ℹ 6 more variables: imm_int <dbl>, imm_nat <dbl>, acq <dbl>, n_dec <dbl>,
#> #   delta_n <dbl>, delta_perc <dbl>
```
