Project population development — propop • propop
…
#> ✔ Year: 2027
#> 
#> ── Settings used for the projection ────────────────────────────────────────────
#> Year of starting population: 2023
#> Number of age groups: 101
#> Fertile period: 16-50
#> Share of female newborns: 0.488
#> Size of starting population: 726894
#> Projection period: 2025-2027
#> Nationality-specific projection: "yes"
#> Subregional migration: "no"
#> ────────────────────────────────────────────────────────────────────────────────
#> Projected population size by 2027: 743611
#> ════════════════════════════════════════════════════════════════════════════════
#> # A tibble: 1,212 × 16
#>     year spatial_unit   age sex   nat   n_jan births   mor emi_int emi_nat
#>    <dbl> <fct>        <dbl> <fct> <fct> <dbl>  <dbl> <dbl>   <dbl>   <dbl>
#>  1  2025 Aargau           0 m     ch        0  2468. 8.01     4.01    22.0
#>  2  2025 Aargau           1 m     ch     2371     0  0.957   10.5     48.7
#>  3  2025 Aargau           2 m     ch     2542     0  1.04    11.4     56.0
#>  4  2025 Aargau           3 m     ch     2891     0  1.09    12.3     54.6
#>  5  2025 Aargau           4 m     ch     2766     0  0       11.3     44.3
#>  6  2025 Aargau           5 m     ch     2794     0  0        9.96    38.9
#>  7  2025 Aargau           6 m     ch     2782     0  0        9.84    33.5
#>  8  2025 Aargau           7 m     ch     2787     0  0        8.91    28.7
#>  9  2025 Aargau           8 m     ch     2726     0  0        7.74    24.2
#> 10  2025 Aargau           9 m     ch     2837     0  0        8.22    21.6
#> # ℹ 1,202 more rows
#> # ℹ 6 more variables: imm_int <dbl>, imm_nat <dbl>, acq <dbl>, n_dec <dbl>,
#> #   delta_n <dbl>, delta_perc <dbl>
…
