Evaluate projections • propop
…
As a result of prepare_evaluation(), you get the
recorded (n_bench) and projected (n_proj)
population for each demographic group and year next to each other:

# Combine and pre-process the data
combined <- prepare_evaluation(
  # only keep years from projected period
  data_benchmark = data_benchmark |> dplyr::filter(year > 2018),
  data_projected = data_projected |> dplyr::filter(year > 2018 & year <= 2022)
)

# Show combined data
combined
#> # A tibble: 1,616 × 7
#>     year spatial_unit nat   sex     age n_bench n_proj
#>    <int> <chr>        <chr> <chr> <dbl>   <dbl>  <dbl>
#>  1  2019 Aargau       ch    m         0    2611   2499
#>  2  2019 Aargau       ch    m         1    2578   2538
#>  3  2019 Aargau       ch    m         2    2619   2616
#>  4  2019 Aargau       ch    m         3    2581   2594
#>  5  2019 Aargau       ch    m         4    2671   2658
#>  6  2019 Aargau       ch    m         5    2721   2722
#>  7  2019 Aargau       ch    m         6    2621   2618
#>  8  2019 Aargau       ch    m         7    2597   2582
#>  9  2019 Aargau       ch    m         8    2634   2626
#> 10  2019 Aargau       ch    m         9    2643   2640
#> # ℹ 1,606 more rows
…
You may also conduct the evaluation for the commonly used age groups
0-19 year olds, 20-64 year olds, and over 64 year olds using the option
age_groups = "age_groups_3".

# Combine and pre-process the data
combined_grouped <- prepare_evaluation(
  # only keep years from projected period
  data_benchmark = data_benchmark |> dplyr::filter(year > 2018),
  data_projected = data_projected |> dplyr::filter(year > 2018 & year <= 2022),
  age_groups = "age_groups_3"
)

# Show combined data
combined_grouped
#> # A tibble: 48 × 7
#>     year spatial_unit age       sex   nat   n_bench n_proj
#>    <int> <chr>        <chr>     <chr> <chr>   <dbl>  <dbl>
#>  1  2019 Aargau       age_00_19 f     ch      49005  48866
#>  2  2019 Aargau       age_00_19 f     int     17744  18042
#>  3  2019 Aargau       age_00_19 m     ch      52084  51778
#>  4  2019 Aargau       age_00_19 m     int     19233  19464
#>  5  2019 Aargau       age_20_64 f     ch     151044 150959
#>  6  2019 Aargau       age_20_64 f     int     55871  56132
#>  7  2019 Aargau       age_20_64 m     ch     148433 148413
#>  8  2019 Aargau       age_20_64 m     int     66487  66746
#>  9  2019 Aargau       age_65_   f     ch      59472  59581
#> 10  2019 Aargau       age_65_   f     int      6295   6314
#> # ℹ 38 more rows
…
