Project population development — propop • propop
…
#> ✔ Year: 2021
#> ✔ Year: 2022
#> 
#> ── Settings used for the projection ────────────────────────────────────────────
#> Year of starting population: 2018
#> Number of age groups: 101
#> Fertile period: 16-50
#> Share of female newborns: 0.488
#> Size of starting population: 678207
#> Projection period: 2019-2022
#> Projected population size (2022): 703948
#> Nationality-specific projection: "yes"
#> Subregional migration: "no"
#> ────────────────────────────────────────────────────────────────────────────────
#> # A tibble: 1,616 × 16
#>     year spatial_unit   age sex   nat   n_jan births    mor emi_int emi_nat
#>    <dbl> <fct>        <dbl> <fct> <fct> <dbl>  <dbl>  <dbl>   <dbl>   <dbl>
#>  1  2019 Aargau           0 m     ch        0  2482. 10.9      6.00    21.0
#>  2  2019 Aargau           1 m     ch     2506     0   1.98    15.0     73.0
#>  3  2019 Aargau           2 m     ch     2589     0   1.00    14.0     61.0
#>  4  2019 Aargau           3 m     ch     2568     0   0.983   13.0     49.0
#>  5  2019 Aargau           4 m     ch     2635     0   0       11.0     42.0
#>  6  2019 Aargau           5 m     ch     2710     0   0       11.0     36.0
#>  7  2019 Aargau           6 m     ch     2608     0   0       10.0     30.0
#>  8  2019 Aargau           7 m     ch     2569     0   0        8.00    26.0
#>  9  2019 Aargau           8 m     ch     2611     0   0        7.00    23.0
#> 10  2019 Aargau           9 m     ch     2634     0   0        6.00    21.0
#> # ℹ 1,606 more rows
#> # ℹ 6 more variables: imm_int <dbl>, imm_nat <dbl>, acq <dbl>, n_dec <dbl>,
#> #   delta_n <dbl>, delta_perc <dbl>
…
