Evaluate projections • propop
…
# Combine and pre-process the data
combined <- prepare_evaluation(
  # only keep years from projected period
  data_benchmark = data_benchmark |> dplyr::filter(year > 2018),
  n_benchmark = "n",
  data_projected = data_projected |> dplyr::filter(year > 2018 & year <= 2022),
  n_projected = "n_dec"
)

# Show combined data
combined
#> # A tibble: 1,616 × 7
#>     year spatial_unit nat   sex     age n_benchmark n_projected
#>    <int> <chr>        <chr> <chr> <dbl>       <dbl>       <dbl>
#>  1  2019 Aargau       ch    m         0        2622       2510.
#>  2  2019 Aargau       ch    m         1        2593       2551.
#>  3  2019 Aargau       ch    m         2        2635       2631.
#>  4  2019 Aargau       ch    m         3        2596       2609.
#>  5  2019 Aargau       ch    m         4        2683       2670.
#>  6  2019 Aargau       ch    m         5        2737       2738.
#>  7  2019 Aargau       ch    m         6        2636       2633.
#>  8  2019 Aargau       ch    m         7        2609       2594.
#>  9  2019 Aargau       ch    m         8        2642       2632.
#> 10  2019 Aargau       ch    m         9        2657       2654.
#> # ℹ 1,606 more rows
…
# Combine and pre-process the data
combined_grouped <- prepare_evaluation(
  # only keep years from projected period
  data_benchmark = data_benchmark |> dplyr::filter(year > 2018),
  n_benchmark = "n",
  data_projected = data_projected |> dplyr::filter(year > 2018 & year <= 2022),
  age_groups = "age_groups_3",
  n_projected = "n_dec"
)

# Show combined data
combined_grouped
#> # A tibble: 48 × 7
#>     year spatial_unit age         sex   nat   n_benchmark n_projected
#>    <int> <chr>        <chr>       <chr> <chr>       <dbl>       <dbl>
#>  1  2019 Aargau       age_00_19   f     ch          49279      49129.
#>  2  2019 Aargau       age_00_19   f     int         17818      18118.
#>  3  2019 Aargau       age_00_19   m     ch          52389      52076.
#>  4  2019 Aargau       age_00_19   m     int         19323      19566.
#>  5  2019 Aargau       age_20_64   f     ch         151860     151781.
#>  6  2019 Aargau       age_20_64   f     int         56115      56380.
#>  7  2019 Aargau       age_20_64   m     ch         149279     149263.
#>  8  2019 Aargau       age_20_64   m     int         66770      67029.
#>  9  2019 Aargau       age_65_plus f     ch          59729      59846.
#> 10  2019 Aargau       age_65_plus f     int          6311       6332.
#> # ℹ 38 more rows
…
