Projections for subregions • propop
…
#> Share of female newborns: 0.488
#> Size of starting population: 735791
#> Projection period: 2025-2026
#> Nationality-specific projection: "yes"
#> Subregional migration: "yes"
#> ────────────────────────────────────────────────────────────────────────────────
#> Projected population size by 2026:
#> - Scenario "reference": 751542
#> ════════════════════════════════════════════════════════════════════════════════
#> 
#> ── Please note ─────────────────────────────────────────────────────────────────
#> ℹ As of propop v2.0.0, propop() uses tables instead of matrices to calculate projections.
#> ℹ The old function is still available as propop_legacy() but won't be further maintained.
#> ════════════════════════════════════════════════════════════════════════════════
#> # A tibble: 4,040 × 17
#>     year scen      spatial_unit nat   sex     age n_jan births mor_n emi_int_n
#>    <int> <chr>     <chr>        <fct> <fct> <dbl> <dbl>  <dbl> <dbl>     <dbl>
#>  1  2025 reference 1            ch    m         0     0   518. 1.68      0.841
#>  2  2025 reference 1            ch    m         1   497     0  0.201     2.20 
#>  3  2025 reference 1            ch    m         2   504     0  0.206     2.26 
#>  4  2025 reference 1            ch    m         3   541     0  0.205     2.29 
#>  5  2025 reference 1            ch    m         4   612     0  0         2.50 
#>  6  2025 reference 1            ch    m         5   587     0  0         2.09 
#>  7  2025 reference 1            ch    m         6   589     0  0         2.08 
#>  8  2025 reference 1            ch    m         7   587     0  0         1.88 
#>  9  2025 reference 1            ch    m         8   594     0  0         1.69 
#> 10  2025 reference 1            ch    m         9   579     0  0         1.68 
#> # ℹ 4,030 more rows
#> # ℹ 7 more variables: emi_nat_n <dbl>, imm_int_n <dbl>, imm_nat_n <dbl>,
#> #   acq_n <dbl>, n_dec <dbl>, delta_n <dbl>, delta_perc <dbl>
…
